{"data":[{"id":9,"attributes":{"title":"Ação Socio 3","body":"<p>Lorem ipsum dolor sit amet, consectetur adipiscing elit, sed do eiusmod tempor incididunt ut labore et dolore magna aliqua. Placerat vestibulum lectus mauris ultrices eros in. Nisl suscipit adipiscing bibendum est ultricies integer quis auctor. Diam sollicitudin tempor id eu nisl. Aenean sed adipiscing diam donec adipiscing tristique risus nec. Quam viverra orci sagittis eu. Urna nec tincidunt praesent semper feugiat. Tellus cras adipiscing enim eu turpis egestas. Facilisis leo vel fringilla est ullamcorper eget nulla facilisi etiam. Vestibulum lectus mauris ultrices eros in cursus turpis massa. Auctor augue mauris augue neque gravida. Non blandit massa enim nec dui nunc mattis enim ut. Tristique et egestas quis ipsum suspendisse. Imperdiet massa tincidunt nunc pulvinar. Purus ut faucibus pulvinar elementum integer enim neque. Bibendum ut tristique et egestas quis ipsum. Lacus suspendisse faucibus interdum posuere lorem ipsum dolor sit amet. Bibendum ut tristique et egestas quis ipsum suspendisse ultrices gravida.</p><p>Congue quisque egestas diam in arcu cursus euismod quis viverra. Leo duis ut diam quam nulla porttitor massa id. Ut faucibus pulvinar elementum integer enim neque volutpat ac tincidunt. Sit amet mauris commodo quis imperdiet. Egestas pretium aenean pharetra magna ac. Dolor sed viverra ipsum nunc aliquet bibendum enim facilisis. Est pellentesque elit ullamcorper dignissim cras tincidunt. Tellus rutrum tellus pellentesque eu tincidunt tortor aliquam nulla facilisi. In hac habitasse platea dictumst quisque sagittis purus sit. In massa tempor nec feugiat nisl pretium fusce. Dictumst quisque sagittis purus sit amet. Donec et odio pellentesque diam volutpat commodo. Lorem ipsum dolor sit amet. Varius sit amet mattis vulputate enim nulla. Quisque non tellus orci ac. Ut pharetra sit amet aliquam id diam maecenas ultricies. Pulvinar mattis nunc sed blandit. Et magnis dis parturient montes nascetur ridiculus mus. Elementum nibh tellus molestie nunc non blandit massa. At volutpat diam ut venenatis.</p><p>Egestas tellus rutrum tellus pellentesque eu. Fermentum leo vel orci porta. Integer feugiat scelerisque varius morbi enim nunc. Malesuada fames ac turpis egestas sed. Suscipit adipiscing bibendum est ultricies integer quis auctor elit. Risus viverra adipiscing at in. Pulvinar etiam non quam lacus suspendisse faucibus interdum posuere lorem. Commodo sed egestas egestas fringilla phasellus faucibus scelerisque eleifend. Etiam non quam lacus suspendisse faucibus. Luctus venenatis lectus magna fringilla urna porttitor rhoncus dolor. Erat nam at lectus urna duis convallis.</p><p>Mattis nunc sed blandit libero volutpat sed cras ornare. Parturient montes nascetur ridiculus mus. Ullamcorper velit sed ullamcorper morbi tincidunt. Nisl pretium fusce id velit ut tortor pretium viverra. Lectus urna duis convallis convallis tellus id interdum velit. Amet nulla facilisi morbi tempus iaculis. Pharetra massa massa ultricies mi quis hendrerit. Morbi tincidunt ornare massa eget egestas purus viverra accumsan in. Aenean pharetra magna ac placerat vestibulum lectus. Faucibus interdum posuere lorem ipsum dolor. Pellentesque pulvinar pellentesque habitant morbi tristique senectus. Eget nunc scelerisque viverra mauris in aliquam sem fringilla. Nunc vel risus commodo viverra maecenas accumsan lacus.</p><p>Lectus arcu bibendum at varius vel pharetra vel. Eget magna fermentum iaculis eu non diam phasellus vestibulum. Et ultrices neque ornare aenean euismod elementum nisi. Varius quam quisque id diam vel quam elementum pulvinar etiam. Amet venenatis urna cursus eget. At urna condimentum mattis pellentesque id nibh tortor. Pretium quam vulputate dignissim suspendisse in est ante in nibh. Id semper risus in hendrerit gravida rutrum quisque non. Ipsum suspendisse ultrices gravida dictum fusce ut placerat orci nulla. Posuere morbi leo urna molestie at. Quis blandit turpis cursus in hac habitasse platea. Enim sit amet venenatis urna cursus eget nunc scelerisque viverra. Phasellus faucibus scelerisque eleifend donec pretium vulputate sapien nec. Pellentesque nec nam aliquam sem et. Vel risus commodo viverra maecenas accumsan lacus. Cras fermentum odio eu feugiat pretium nibh ipsum consequat nisl.</p>","slug":"acao-socio-3","createdAt":"2023-02-08T13:50:31.107Z","updatedAt":"2023-03-08T12:37:16.931Z","publishedAt":"2023-02-08T13:50:33.765Z","cover":{"data":{"id":6,"attributes":{"name":"post-6.jpeg","alternativeText":null,"caption":null,"width":3350,"height":4000,"formats":{"thumbnail":{"name":"thumbnail_post-6.jpeg","hash":"thumbnail_post_6_c1997198da","ext":".jpeg","mime":"image/jpeg","path":null,"width":130,"height":156,"size":7.79,"url":"/uploads/thumbnail_post_6_c1997198da.jpeg"}},"hash":"post_6_c1997198da","ext":".jpeg","mime":"image/jpeg","size":11365.65,"url":"/uploads/post_6_c1997198da.jpeg","previewUrl":null,"provider":"local","provider_metadata":null,"createdAt":"2023-01-10T11:20:19.921Z","updatedAt":"2023-01-10T11:20:19.921Z"}}},"categorias":{"data":[{"id":4,"attributes":{"name":"Ações Socioambientais","slug":"acoes-socioambientais","createdAt":"2023-01-19T17:51:16.334Z","updatedAt":"2023-01-19T17:51:16.334Z"}}]}}},{"id":8,"attributes":{"title":"Ação Socio 2","body":"<p>Lorem ipsum dolor sit amet, consectetur adipiscing elit, sed do eiusmod tempor incididunt ut labore et dolore magna aliqua. Placerat vestibulum lectus mauris ultrices eros in. Nisl suscipit adipiscing bibendum est ultricies integer quis auctor. Diam sollicitudin tempor id eu nisl. Aenean sed adipiscing diam donec adipiscing tristique risus nec. Quam viverra orci sagittis eu. Urna nec tincidunt praesent semper feugiat. Tellus cras adipiscing enim eu turpis egestas. Facilisis leo vel fringilla est ullamcorper eget nulla facilisi etiam. Vestibulum lectus mauris ultrices eros in cursus turpis massa. Auctor augue mauris augue neque gravida. Non blandit massa enim nec dui nunc mattis enim ut. Tristique et egestas quis ipsum suspendisse. Imperdiet massa tincidunt nunc pulvinar. Purus ut faucibus pulvinar elementum integer enim neque. Bibendum ut tristique et egestas quis ipsum. Lacus suspendisse faucibus interdum posuere lorem ipsum dolor sit amet. Bibendum ut tristique et egestas quis ipsum suspendisse ultrices gravida.</p><p>Congue quisque egestas diam in arcu cursus euismod quis viverra. Leo duis ut diam quam nulla porttitor massa id. Ut faucibus pulvinar elementum integer enim neque volutpat ac tincidunt. Sit amet mauris commodo quis imperdiet. Egestas pretium aenean pharetra magna ac. Dolor sed viverra ipsum nunc aliquet bibendum enim facilisis. Est pellentesque elit ullamcorper dignissim cras tincidunt. Tellus rutrum tellus pellentesque eu tincidunt tortor aliquam nulla facilisi. In hac habitasse platea dictumst quisque sagittis purus sit. In massa tempor nec feugiat nisl pretium fusce. Dictumst quisque sagittis purus sit amet. Donec et odio pellentesque diam volutpat commodo. Lorem ipsum dolor sit amet. Varius sit amet mattis vulputate enim nulla. Quisque non tellus orci ac. Ut pharetra sit amet aliquam id diam maecenas ultricies. Pulvinar mattis nunc sed blandit. Et magnis dis parturient montes nascetur ridiculus mus. Elementum nibh tellus molestie nunc non blandit massa. At volutpat diam ut venenatis.</p><p>Egestas tellus rutrum tellus pellentesque eu. Fermentum leo vel orci porta. Integer feugiat scelerisque varius morbi enim nunc. Malesuada fames ac turpis egestas sed. Suscipit adipiscing bibendum est ultricies integer quis auctor elit. Risus viverra adipiscing at in. Pulvinar etiam non quam lacus suspendisse faucibus interdum posuere lorem. Commodo sed egestas egestas fringilla phasellus faucibus scelerisque eleifend. Etiam non quam lacus suspendisse faucibus. Luctus venenatis lectus magna fringilla urna porttitor rhoncus dolor. Erat nam at lectus urna duis convallis.</p><p>Mattis nunc sed blandit libero volutpat sed cras ornare. Parturient montes nascetur ridiculus mus. Ullamcorper velit sed ullamcorper morbi tincidunt. Nisl pretium fusce id velit ut tortor pretium viverra. Lectus urna duis convallis convallis tellus id interdum velit. Amet nulla facilisi morbi tempus iaculis. Pharetra massa massa ultricies mi quis hendrerit. Morbi tincidunt ornare massa eget egestas purus viverra accumsan in. Aenean pharetra magna ac placerat vestibulum lectus. Faucibus interdum posuere lorem ipsum dolor. Pellentesque pulvinar pellentesque habitant morbi tristique senectus. Eget nunc scelerisque viverra mauris in aliquam sem fringilla. Nunc vel risus commodo viverra maecenas accumsan lacus.</p><p>Lectus arcu bibendum at varius vel pharetra vel. Eget magna fermentum iaculis eu non diam phasellus vestibulum. Et ultrices neque ornare aenean euismod elementum nisi. Varius quam quisque id diam vel quam elementum pulvinar etiam. Amet venenatis urna cursus eget. At urna condimentum mattis pellentesque id nibh tortor. Pretium quam vulputate dignissim suspendisse in est ante in nibh. Id semper risus in hendrerit gravida rutrum quisque non. Ipsum suspendisse ultrices gravida dictum fusce ut placerat orci nulla. Posuere morbi leo urna molestie at. Quis blandit turpis cursus in hac habitasse platea. Enim sit amet venenatis urna cursus eget nunc scelerisque viverra. Phasellus faucibus scelerisque eleifend donec pretium vulputate sapien nec. Pellentesque nec nam aliquam sem et. Vel risus commodo viverra maecenas accumsan lacus. Cras fermentum odio eu feugiat pretium nibh ipsum consequat nisl.</p>","slug":"acao-socio-2","createdAt":"2023-02-08T13:49:58.588Z","updatedAt":"2023-02-16T16:14:53.322Z","publishedAt":"2023-02-08T13:50:00.883Z","cover":{"data":{"id":5,"attributes":{"name":"post-4.jpg","alternativeText":null,"caption":null,"width":7807,"height":5853,"formats":{"thumbnail":{"name":"thumbnail_post-4.jpg","hash":"thumbnail_post_4_2863c26e9b","ext":".jpg","mime":"image/jpeg","path":null,"width":208,"height":156,"size":6.75,"url":"/uploads/thumbnail_post_4_2863c26e9b.jpg"}},"hash":"post_4_2863c26e9b","ext":".jpg","mime":"image/jpeg","size":3195.9,"url":"/uploads/post_4_2863c26e9b.jpg","previewUrl":null,"provider":"local","provider_metadata":null,"createdAt":"2023-01-10T11:20:19.240Z","updatedAt":"2023-01-10T11:20:19.240Z"}}},"categorias":{"data":[{"id":4,"attributes":{"name":"Ações Socioambientais","slug":"acoes-socioambientais","createdAt":"2023-01-19T17:51:16.334Z","updatedAt":"2023-01-19T17:51:16.334Z"}}]}}},{"id":7,"attributes":{"title":"Limpeza da Praia de Tramandaí","body":"<p>Lorem ipsum dolor sit amet, consectetur adipiscing elit, sed do eiusmod tempor incididunt ut labore et dolore magna aliqua. Purus gravida quis blandit turpis cursus in hac. Integer malesuada nunc vel risus commodo viverra maecenas accumsan lacus. Diam in arcu cursus euismod. Tincidunt nunc pulvinar sapien et ligula ullamcorper. Massa tincidunt dui ut ornare lectus sit amet est. At erat pellentesque adipiscing commodo elit at imperdiet. Diam vel quam elementum pulvinar etiam non. Et netus et malesuada fames ac turpis egestas sed tempus. Sed vulputate mi sit amet. Non diam phasellus vestibulum lorem sed risus ultricies tristique nulla.</p><p>Volutpat blandit aliquam etiam erat. Egestas erat imperdiet sed euismod nisi porta lorem mollis. Tellus molestie nunc non blandit massa enim nec. Turpis in eu mi bibendum neque egestas congue quisque egestas. Nec tincidunt praesent semper feugiat nibh sed pulvinar proin gravida. Aliquet lectus proin nibh nisl condimentum. Sit amet volutpat consequat mauris nunc congue. Amet est placerat in egestas. Feugiat pretium nibh ipsum consequat nisl vel pretium lectus quam. Faucibus nisl tincidunt eget nullam non. Sagittis orci a scelerisque purus semper eget duis. Massa ultricies mi quis hendrerit. Amet nulla facilisi morbi tempus iaculis. Ultrices dui sapien eget mi proin sed libero enim.</p><p>Sem viverra aliquet eget sit amet tellus cras. Nunc pulvinar sapien et ligula ullamcorper. Suspendisse potenti nullam ac tortor vitae purus faucibus ornare. Turpis massa sed elementum tempus egestas sed sed risus pretium. Tincidunt nunc pulvinar sapien et ligula. In fermentum posuere urna nec. Leo vel fringilla est ullamcorper eget nulla. Et netus et malesuada fames ac turpis egestas. Consectetur purus ut faucibus pulvinar elementum. Scelerisque fermentum dui faucibus in ornare quam. Enim ut sem viverra aliquet eget sit amet tellus cras. Arcu risus quis varius quam quisque id diam. Quis viverra nibh cras pulvinar mattis nunc sed blandit. Mattis vulputate enim nulla aliquet. In fermentum posuere urna nec. Est placerat in egestas erat. Consequat interdum varius sit amet.</p><p>Mollis aliquam ut porttitor leo a diam sollicitudin tempor. Non curabitur gravida arcu ac tortor dignissim. Pharetra pharetra massa massa ultricies mi quis hendrerit. Sed ullamcorper morbi tincidunt ornare. Risus sed vulputate odio ut enim blandit volutpat maecenas. Mattis molestie a iaculis at erat pellentesque. Cursus in hac habitasse platea dictumst. Ultrices sagittis orci a scelerisque purus semper eget duis. Diam maecenas sed enim ut. Euismod elementum nisi quis eleifend quam adipiscing vitae proin sagittis.</p><p>Amet porttitor eget dolor morbi non arcu risus. Nisl nisi scelerisque eu ultrices vitae auctor eu augue ut. Egestas pretium aenean pharetra magna ac. Tellus in hac habitasse platea dictumst vestibulum rhoncus est. Praesent elementum facilisis leo vel fringilla est. Diam maecenas ultricies mi eget mauris pharetra. Justo eget magna fermentum iaculis eu. Fermentum dui faucibus in ornare quam viverra orci. Facilisi etiam dignissim diam quis enim lobortis. Tellus elementum sagittis vitae et. Fusce id velit ut tortor pretium viverra. At varius vel pharetra vel turpis nunc eget lorem. Convallis tellus id interdum velit laoreet id donec ultrices tincidunt. Pharetra pharetra massa massa ultricies mi quis hendrerit. Augue neque gravida in fermentum et. Molestie ac feugiat sed lectus. Ac orci phasellus egestas tellus rutrum tellus pellentesque.</p>","slug":"limpeza-da-praia-de-tramandai","createdAt":"2023-01-19T17:52:45.943Z","updatedAt":"2023-02-08T13:48:54.030Z","publishedAt":"2023-01-19T17:53:01.964Z","cover":{"data":{"id":26,"attributes":{"name":"AdobeStock_507497673.jpeg","alternativeText":null,"caption":null,"width":5596,"height":3573,"formats":{"thumbnail":{"name":"thumbnail_AdobeStock_507497673.jpeg","hash":"thumbnail_Adobe_Stock_507497673_7937a394ec","ext":".jpeg","mime":"image/jpeg","path":null,"width":244,"height":156,"size":9.12,"url":"/uploads/thumbnail_Adobe_Stock_507497673_7937a394ec.jpeg"}},"hash":"Adobe_Stock_507497673_7937a394ec","ext":".jpeg","mime":"image/jpeg","size":1826.42,"url":"/uploads/Adobe_Stock_507497673_7937a394ec.jpeg","previewUrl":null,"provider":"local","provider_metadata":null,"createdAt":"2023-01-19T17:49:37.848Z","updatedAt":"2023-01-19T17:49:37.848Z"}}},"categorias":{"data":[{"id":4,"attributes":{"name":"Ações Socioambientais","slug":"acoes-socioambientais","createdAt":"2023-01-19T17:51:16.334Z","updatedAt":"2023-01-19T17:51:16.334Z"}}]}}},{"id":6,"attributes":{"title":"Título da Publicação 6","body":"<p>Lorem ipsum dolor sit amet, consectetur adipiscing elit, sed do eiusmod tempor incididunt ut labore et dolore magna aliqua. Erat imperdiet sed euismod nisi. Elit ullamcorper dignissim cras tincidunt lobortis feugiat. Pellentesque habitant morbi tristique senectus et. Nascetur ridiculus mus mauris vitae ultricies leo integer malesuada. Nullam non nisi est sit amet facilisis magna etiam. Lorem ipsum dolor sit amet. Sed elementum tempus egestas sed sed risus pretium. Ligula ullamcorper malesuada proin libero nunc consequat interdum varius sit. Magnis dis parturient montes nascetur. Mauris a diam maecenas sed enim.</p><p>Adipiscing elit ut aliquam purus sit amet luctus venenatis lectus. Eget mi proin sed libero enim sed faucibus turpis in. Ipsum dolor sit amet consectetur adipiscing elit. Sem integer vitae justo eget magna. Pellentesque habitant morbi tristique senectus et. Et magnis dis parturient montes nascetur ridiculus mus mauris vitae. Convallis tellus id interdum velit. Purus ut faucibus pulvinar elementum integer. Sed adipiscing diam donec adipiscing tristique risus nec feugiat. Nunc vel risus commodo viverra maecenas. Sodales ut etiam sit amet nisl. Etiam tempor orci eu lobortis. Sed felis eget velit aliquet.</p><p>Pellentesque habitant morbi tristique senectus. Maecenas ultricies mi eget mauris. At urna condimentum mattis pellentesque id nibh tortor id aliquet. Eu non diam phasellus vestibulum. Volutpat maecenas volutpat blandit aliquam. Lectus proin nibh nisl condimentum id. Nullam non nisi est sit amet. Tortor aliquam nulla facilisi cras fermentum. Duis at tellus at urna condimentum. Facilisis sed odio morbi quis commodo. Adipiscing elit pellentesque habitant morbi tristique senectus et netus. Quisque sagittis purus sit amet volutpat consequat mauris. Neque viverra justo nec ultrices dui sapien. Facilisi morbi tempus iaculis urna id volutpat lacus. Nunc sed id semper risus in hendrerit. Feugiat in ante metus dictum at tempor.</p><p>Sapien nec sagittis aliquam malesuada bibendum. Fermentum et sollicitudin ac orci phasellus egestas tellus rutrum. Faucibus nisl tincidunt eget nullam non nisi est sit amet. Mattis rhoncus urna neque viverra justo nec ultrices dui sapien. Risus viverra adipiscing at in tellus integer. Tellus in metus vulputate eu scelerisque felis imperdiet proin. Tempus imperdiet nulla malesuada pellentesque elit eget. Ullamcorper morbi tincidunt ornare massa. Sollicitudin tempor id eu nisl nunc mi ipsum faucibus. Mauris in aliquam sem fringilla ut morbi. Fusce ut placerat orci nulla pellentesque.</p><p>Massa placerat duis ultricies lacus sed turpis tincidunt id. Posuere sollicitudin aliquam ultrices sagittis orci a scelerisque purus. Eu tincidunt tortor aliquam nulla facilisi cras fermentum odio eu. Sit amet facilisis magna etiam tempor orci. Neque laoreet suspendisse interdum consectetur libero id faucibus nisl tincidunt. Sit amet nulla facilisi morbi tempus iaculis urna id volutpat. Congue nisi vitae suscipit tellus mauris a diam maecenas sed. Neque aliquam vestibulum morbi blandit cursus. Molestie ac feugiat sed lectus vestibulum. Gravida dictum fusce ut placerat. Odio ut sem nulla pharetra diam sit amet nisl. Auctor eu augue ut lectus arcu. Diam donec adipiscing tristique risus nec. Natoque penatibus et magnis dis parturient montes nascetur ridiculus mus. Eu sem integer vitae justo eget magna. Sed cras ornare arcu dui.</p>","slug":"titulo-da-publicacao-6","createdAt":"2023-01-10T11:36:53.702Z","updatedAt":"2023-01-10T11:36:55.591Z","publishedAt":"2023-01-10T11:36:55.583Z","cover":{"data":{"id":6,"attributes":{"name":"post-6.jpeg","alternativeText":null,"caption":null,"width":3350,"height":4000,"formats":{"thumbnail":{"name":"thumbnail_post-6.jpeg","hash":"thumbnail_post_6_c1997198da","ext":".jpeg","mime":"image/jpeg","path":null,"width":130,"height":156,"size":7.79,"url":"/uploads/thumbnail_post_6_c1997198da.jpeg"}},"hash":"post_6_c1997198da","ext":".jpeg","mime":"image/jpeg","size":11365.65,"url":"/uploads/post_6_c1997198da.jpeg","previewUrl":null,"provider":"local","provider_metadata":null,"createdAt":"2023-01-10T11:20:19.921Z","updatedAt":"2023-01-10T11:20:19.921Z"}}},"categorias":{"data":[{"id":1,"attributes":{"name":"Categoria 01","slug":"categoria-01","createdAt":"2023-01-10T11:29:50.712Z","updatedAt":"2023-01-10T11:29:50.712Z"}}]}}},{"id":5,"attributes":{"title":"Título da Publicação 5","body":"<p>Lorem ipsum dolor sit amet, consectetur adipiscing elit, sed do eiusmod tempor incididunt ut labore et dolore magna aliqua. Posuere morbi leo urna molestie. Quis risus sed vulputate odio ut enim. Leo vel orci porta non pulvinar neque laoreet. Consectetur purus ut faucibus pulvinar elementum integer enim neque volutpat. Viverra nibh cras pulvinar mattis nunc sed blandit. Semper eget duis at tellus at urna condimentum mattis pellentesque. Id porta nibh venenatis cras sed felis eget velit aliquet. In ornare quam viverra orci sagittis eu volutpat odio facilisis. At quis risus sed vulputate odio ut enim blandit volutpat. Dignissim suspendisse in est ante in nibh. Lacinia at quis risus sed vulputate odio ut enim. Tempus iaculis urna id volutpat lacus laoreet. Risus viverra adipiscing at in.</p><p>Pellentesque pulvinar pellentesque habitant morbi tristique senectus et netus. Arcu risus quis varius quam quisque id diam vel. Volutpat odio facilisis mauris sit amet massa vitae. Faucibus in ornare quam viverra orci sagittis. Pellentesque dignissim enim sit amet venenatis urna cursus eget nunc. Sit amet purus gravida quis blandit. Dolor sit amet consectetur adipiscing elit pellentesque habitant morbi tristique. Ac placerat vestibulum lectus mauris. In ornare quam viverra orci sagittis. Massa massa ultricies mi quis hendrerit dolor magna. In vitae turpis massa sed elementum. Amet massa vitae tortor condimentum lacinia quis. Tellus integer feugiat scelerisque varius morbi. Vitae aliquet nec ullamcorper sit.</p><p>Vivamus at augue eget arcu dictum varius. Faucibus ornare suspendisse sed nisi lacus sed viverra tellus. Orci sagittis eu volutpat odio facilisis mauris sit amet. Faucibus et molestie ac feugiat sed lectus vestibulum. Sodales ut eu sem integer vitae justo eget. Suscipit tellus mauris a diam maecenas sed enim. Lectus quam id leo in vitae turpis massa. In aliquam sem fringilla ut morbi tincidunt. Varius sit amet mattis vulputate enim nulla. Leo integer malesuada nunc vel. Interdum velit laoreet id donec ultrices tincidunt arcu non sodales. Euismod lacinia at quis risus sed vulputate. Id ornare arcu odio ut sem nulla. Urna porttitor rhoncus dolor purus non enim praesent elementum. Arcu risus quis varius quam quisque id. In metus vulputate eu scelerisque. Ante metus dictum at tempor.</p><p>Id venenatis a condimentum vitae. Cras sed felis eget velit aliquet sagittis id consectetur purus. Massa tempor nec feugiat nisl. In metus vulputate eu scelerisque felis imperdiet proin. Fermentum et sollicitudin ac orci phasellus egestas. Feugiat scelerisque varius morbi enim. Quisque sagittis purus sit amet volutpat consequat mauris nunc congue. Sit amet purus gravida quis blandit turpis cursus. Vitae turpis massa sed elementum tempus. Phasellus vestibulum lorem sed risus ultricies tristique nulla aliquet enim. Viverra adipiscing at in tellus integer feugiat scelerisque varius. Eleifend quam adipiscing vitae proin sagittis nisl rhoncus mattis rhoncus. Tempor orci dapibus ultrices in iaculis nunc.</p><p>Elit eget gravida cum sociis natoque penatibus et magnis dis. Tellus cras adipiscing enim eu turpis egestas. Ac tortor dignissim convallis aenean et. Feugiat pretium nibh ipsum consequat nisl vel pretium lectus quam. Felis eget nunc lobortis mattis aliquam. Phasellus vestibulum lorem sed risus ultricies tristique. Nec sagittis aliquam malesuada bibendum arcu. Quam pellentesque nec nam aliquam. Nullam non nisi est sit. Malesuada nunc vel risus commodo viverra maecenas accumsan lacus vel. Vitae proin sagittis nisl rhoncus.</p>","slug":"titulo-da-publicacao-5","createdAt":"2023-01-10T11:36:07.122Z","updatedAt":"2023-01-10T11:36:09.833Z","publishedAt":"2023-01-10T11:36:09.825Z","cover":{"data":{"id":2,"attributes":{"name":"post-5.jpg","alternativeText":null,"caption":null,"width":6016,"height":4016,"formats":{"thumbnail":{"name":"thumbnail_post-5.jpg","hash":"thumbnail_post_5_554966a486","ext":".jpg","mime":"image/jpeg","path":null,"width":234,"height":156,"size":8.66,"url":"/uploads/thumbnail_post_5_554966a486.jpg"}},"hash":"post_5_554966a486","ext":".jpg","mime":"image/jpeg","size":1312.32,"url":"/uploads/post_5_554966a486.jpg","previewUrl":null,"provider":"local","provider_metadata":null,"createdAt":"2023-01-10T11:20:16.838Z","updatedAt":"2023-01-10T11:20:16.838Z"}}},"categorias":{"data":[{"id":3,"attributes":{"name":"Categoria 03","slug":"categoria-03","createdAt":"2023-01-10T11:30:25.940Z","updatedAt":"2023-01-10T11:30:25.940Z"}},{"id":1,"attributes":{"name":"Categoria 01","slug":"categoria-01","createdAt":"2023-01-10T11:29:50.712Z","updatedAt":"2023-01-10T11:29:50.712Z"}}]}}},{"id":4,"attributes":{"title":"Título da Publicação 4","body":"<p>Lorem ipsum dolor sit amet, consectetur adipiscing elit, sed do eiusmod tempor incididunt ut labore et dolore magna aliqua. Habitasse platea dictumst quisque sagittis purus. Commodo ullamcorper a lacus vestibulum sed. Faucibus interdum posuere lorem ipsum dolor sit amet. Sed odio morbi quis commodo. Eget velit aliquet sagittis id consectetur. Mauris ultrices eros in cursus turpis massa tincidunt. Id velit ut tortor pretium viverra suspendisse potenti nullam. Vel turpis nunc eget lorem dolor. Amet venenatis urna cursus eget nunc scelerisque viverra. Sodales ut eu sem integer vitae justo eget magna fermentum. Eget mi proin sed libero enim sed. Consectetur adipiscing elit duis tristique. Sapien et ligula ullamcorper malesuada proin libero nunc consequat interdum.</p><p>Sagittis nisl rhoncus mattis rhoncus. Netus et malesuada fames ac turpis. Lectus vestibulum mattis ullamcorper velit sed ullamcorper morbi tincidunt. Cursus in hac habitasse platea dictumst quisque sagittis purus. Vestibulum morbi blandit cursus risus at ultrices mi tempus imperdiet. Diam maecenas ultricies mi eget. Condimentum vitae sapien pellentesque habitant morbi tristique senectus et netus. Mi ipsum faucibus vitae aliquet nec ullamcorper sit amet risus. Et ligula ullamcorper malesuada proin libero nunc consequat. Lorem mollis aliquam ut porttitor leo a diam.</p><p>Ornare quam viverra orci sagittis eu volutpat odio facilisis. Tellus mauris a diam maecenas sed. Id leo in vitae turpis massa. Ante metus dictum at tempor commodo ullamcorper a lacus vestibulum. Sit amet venenatis urna cursus eget nunc scelerisque viverra. In aliquam sem fringilla ut morbi tincidunt augue interdum. Dictum varius duis at consectetur. Risus sed vulputate odio ut enim blandit volutpat. Vestibulum sed arcu non odio euismod lacinia at quis risus. Non diam phasellus vestibulum lorem. Aliquet sagittis id consectetur purus ut faucibus. Risus nec feugiat in fermentum posuere urna nec tincidunt. Diam in arcu cursus euismod quis. Fermentum iaculis eu non diam phasellus vestibulum lorem sed risus. Egestas egestas fringilla phasellus faucibus scelerisque eleifend donec pretium. Eget sit amet tellus cras adipiscing enim.</p><p>Urna molestie at elementum eu facilisis. Nibh venenatis cras sed felis eget velit aliquet. Volutpat commodo sed egestas egestas fringilla phasellus faucibus scelerisque. Vitae nunc sed velit dignissim sodales ut. Neque gravida in fermentum et sollicitudin ac orci phasellus. Pellentesque massa placerat duis ultricies lacus sed. Gravida arcu ac tortor dignissim convallis aenean. Nulla facilisi cras fermentum odio. Aliquam sem et tortor consequat id porta. Faucibus purus in massa tempor nec feugiat nisl pretium fusce. Arcu cursus vitae congue mauris rhoncus aenean. Amet mauris commodo quis imperdiet massa.</p><p>Pharetra diam sit amet nisl suscipit adipiscing bibendum est. Ipsum dolor sit amet consectetur adipiscing. Nulla porttitor massa id neque aliquam vestibulum morbi. Enim eu turpis egestas pretium aenean pharetra magna ac placerat. Tellus at urna condimentum mattis pellentesque. Eget mauris pharetra et ultrices. Euismod in pellentesque massa placerat duis ultricies lacus sed turpis. Porttitor rhoncus dolor purus non enim. Id eu nisl nunc mi ipsum faucibus vitae aliquet nec. Orci sagittis eu volutpat odio facilisis. Praesent elementum facilisis leo vel fringilla est. Dictum sit amet justo donec enim diam vulputate ut pharetra. Dapibus ultrices in iaculis nunc sed augue lacus viverra. Tempor id eu nisl nunc mi. Senectus et netus et malesuada fames ac turpis egestas. Ut faucibus pulvinar elementum integer. Posuere morbi leo urna molestie at elementum. Nisl vel pretium lectus quam id leo in vitae turpis. Magna sit amet purus gravida quis blandit turpis cursus. Id velit ut tortor pretium viverra suspendisse potenti nullam.</p>","slug":"titulo-da-publicacao-4","createdAt":"2023-01-10T11:35:40.541Z","updatedAt":"2023-01-10T11:35:42.577Z","publishedAt":"2023-01-10T11:35:42.572Z","cover":{"data":{"id":5,"attributes":{"name":"post-4.jpg","alternativeText":null,"caption":null,"width":7807,"height":5853,"formats":{"thumbnail":{"name":"thumbnail_post-4.jpg","hash":"thumbnail_post_4_2863c26e9b","ext":".jpg","mime":"image/jpeg","path":null,"width":208,"height":156,"size":6.75,"url":"/uploads/thumbnail_post_4_2863c26e9b.jpg"}},"hash":"post_4_2863c26e9b","ext":".jpg","mime":"image/jpeg","size":3195.9,"url":"/uploads/post_4_2863c26e9b.jpg","previewUrl":null,"provider":"local","provider_metadata":null,"createdAt":"2023-01-10T11:20:19.240Z","updatedAt":"2023-01-10T11:20:19.240Z"}}},"categorias":{"data":[{"id":2,"attributes":{"name":"Categoria 02","slug":"categoria-02","createdAt":"2023-01-10T11:30:06.223Z","updatedAt":"2023-01-10T11:30:06.223Z"}}]}}}],"meta":{"pagination":{"page":1,"pageSize":6,"pageCount":2,"total":9}}}